…
``` r
#read in data
dayData <- read_csv("day.csv")
dayData
```

    ## # A tibble: 731 x 16
    ##    instant dteday     season    yr  mnth holiday weekday workingday weathersit  temp atemp   hum
    ##      <dbl> <date>      <dbl> <dbl> <dbl>   <dbl>   <dbl>      <dbl>      <dbl> <dbl> <dbl> <dbl>
    ##  1       1 2011-01-01      1     0     1       0       6          0          2 0.344 0.364 0.806
    ##  2       2 2011-01-02      1     0     1       0       0          0          2 0.363 0.354 0.696
    ##  3       3 2011-01-03      1     0     1       0       1          1          1 0.196 0.189 0.437
    ##  4       4 2011-01-04      1     0     1       0       2          1          1 0.2   0.212 0.590
    ##  5       5 2011-01-05      1     0     1       0       3          1          1 0.227 0.229 0.437
    ##  6       6 2011-01-06      1     0     1       0       4          1          1 0.204 0.233 0.518
    ##  7       7 2011-01-07      1     0     1       0       5          1          2 0.197 0.209 0.499
    ##  8       8 2011-01-08      1     0     1       0       6          0          2 0.165 0.162 0.536
    ##  9       9 2011-01-09      1     0     1       0       0          0          1 0.138 0.116 0.434
    ## 10      10 2011-01-10      1     0     1       0       1          1          1 0.151 0.151 0.483
    ## # … with 721 more rows, and 4 more variables: windspeed <dbl>, casual <dbl>, registered <dbl>,
    ## #   cnt <dbl>
…
``` r
#split data set into training and test sets
set.seed(1)
train <- sample(1:nrow(paramsData), size = nrow(paramsData)*0.7)
test <- dplyr::setdiff(1:nrow(paramsData), train)

train <- paramsData[train, ]
test <- paramsData[test, ]

#view the data sets
train
```

    ## # A tibble: 72 x 22
    ##    instant dteday     season    yr  mnth holiday weekday workingday weathersit  temp atemp   hum
    ##      <dbl> <date>      <dbl> <dbl> <dbl>   <dbl>   <dbl>      <dbl>      <dbl> <dbl> <dbl> <dbl>
    ##  1     196 2011-07-15      3     0     7       0       5          1          1 0.663 0.624 0.591
    ##  2     273 2011-09-30      4     0     9       0       5          1          1 0.564 0.545 0.648
    ##  3     413 2012-02-17      1     1     2       0       5          1          1 0.343 0.352 0.635
    ##  4     644 2012-10-05      4     1    10       0       5          1          1 0.615 0.580 0.628
    ##  5     147 2011-05-27      2     0     5       0       5          1          1 0.682 0.637 0.654
    ##  6     623 2012-09-14      3     1     9       0       5          1          1 0.633 0.594 0.672
    ##  7     651 2012-10-12      4     1    10       0       5          1          1 0.438 0.433 0.539
    ##  8     455 2012-03-30      2     1     3       0       5          1          2 0.37  0.376 0.581
    ##  9     427 2012-03-02      1     1     3       0       5          1          2 0.353 0.360 0.657
    ## 10      42 2011-02-11      1     0     2       0       5          1          1 0.189 0.214 0.506
    ## # … with 62 more rows, and 10 more variables: windspeed <dbl>, casual <dbl>, registered <dbl>,
    ## #   cnt <dbl>, status <chr>, SeasonType <chr>, yearType <chr>, workingdayType <chr>,
    ## #   weathersitType <chr>, mnth1 <chr>

``` r
test
```

    ## # A tibble: 32 x 22
    ##    instant dteday     season    yr  mnth holiday weekday workingday weathersit  temp atemp   hum
    ##      <dbl> <date>      <dbl> <dbl> <dbl>   <dbl>   <dbl>      <dbl>      <dbl> <dbl> <dbl> <dbl>
    ##  1       7 2011-01-07      1     0     1       0       5          1          2 0.197 0.209 0.499
    ##  2      21 2011-01-21      1     0     1       0       5          1          1 0.178 0.158 0.457
    ##  3      49 2011-02-18      1     0     2       0       5          1          1 0.522 0.512 0.517
    ##  4      63 2011-03-04      1     0     3       0       5          1          2 0.262 0.256 0.610
    ##  5      70 2011-03-11      1     0     3       0       5          1          2 0.317 0.305 0.650
    ##  6     105 2011-04-15      2     0     4       1       5          0          1 0.447 0.442 0.671
    ##  7     168 2011-06-17      2     0     6       0       5          1          1 0.649 0.600 0.736
    ##  8     259 2011-09-16      3     0     9       0       5          1          2 0.469 0.461 0.590
    ##  9     266 2011-09-23      4     0     9       0       5          1          2 0.609 0.522 0.972
    ## 10     280 2011-10-07      4     0    10       0       5          1          1 0.511 0.504 0.684
    ## # … with 22 more rows, and 10 more variables: windspeed <dbl>, casual <dbl>, registered <dbl>,
    ## #   cnt <dbl>, status <chr>, SeasonType <chr>, yearType <chr>, workingdayType <chr>,
    ## #   weathersitType <chr>, mnth1 <chr>
…
### Modeling of the second group member

To select a model, we use the `stepAIC()` function. In the `stepAIC()`
function, we first specify the model with only main effects and the data
set to be used. Then we specify the most complex model and the most
simple model as upper and lower respectively in the scope.

``` r
#creat new data sets trainNew and testNew
trainNew <- train[, c(3:5, 9:13, 16)]
trainNew
```

    ## # A tibble: 72 x 9
    ##    season    yr  mnth weathersit  temp atemp   hum windspeed   cnt
    ##     <dbl> <dbl> <dbl>      <dbl> <dbl> <dbl> <dbl>     <dbl> <dbl>
    ##  1      3     0     7          1 0.663 0.624 0.591     0.183  5538
    ##  2      4     0     9          1 0.564 0.545 0.648     0.206  5202
    ##  3      1     1     2          1 0.343 0.352 0.635     0.206  4154
    ##  4      4     1    10          1 0.615 0.580 0.628     0.106  8156
    ##  5      2     0     5          1 0.682 0.637 0.654     0.241  4679
    ##  6      3     1     9          1 0.633 0.594 0.672     0.104  8009
    ##  7      4     1    10          1 0.438 0.433 0.539     0.235  7282
    ##  8      2     1     3          2 0.37  0.376 0.581     0.138  5459
    ##  9      1     1     3          2 0.353 0.360 0.657     0.145  3194
    ## 10      1     0     2          1 0.189 0.214 0.506     0.109  1746
    ## # … with 62 more rows

``` r
testNew <- test[, c(3:5, 9:13, 16)]
testNew
```

    ## # A tibble: 32 x 9
    ##    season    yr  mnth weathersit  temp atemp   hum windspeed   cnt
    ##     <dbl> <dbl> <dbl>      <dbl> <dbl> <dbl> <dbl>     <dbl> <dbl>
    ##  1      1     0     1          2 0.197 0.209 0.499    0.169   1510
    ##  2      1     0     1          1 0.178 0.158 0.457    0.353   1543
    ##  3      1     0     2          1 0.522 0.512 0.517    0.265   2927
    ##  4      1     0     3          2 0.262 0.256 0.610    0.203   1944
    ##  5      1     0     3          2 0.317 0.305 0.650    0.233   1977
    ##  6      2     0     4          1 0.447 0.442 0.671    0.226   3126
    ##  7      2     0     6          1 0.649 0.600 0.736    0.143   4844
    ##  8      3     0     9          2 0.469 0.461 0.590    0.164   4760
    ##  9      4     0     9          2 0.609 0.522 0.972    0.0784  2395
    ## 10      4     0    10          1 0.511 0.504 0.684    0.0224  4985
    ## # … with 22 more rows
…
