…
``` r
#read in data
dayData <- read_csv("day.csv")
dayData
```

    ## # A tibble: 731 x 16
    ##    instant dteday     season    yr  mnth holiday weekday workingday weathersit  temp atemp   hum
    ##      <dbl> <date>      <dbl> <dbl> <dbl>   <dbl>   <dbl>      <dbl>      <dbl> <dbl> <dbl> <dbl>
    ##  1       1 2011-01-01      1     0     1       0       6          0          2 0.344 0.364 0.806
    ##  2       2 2011-01-02      1     0     1       0       0          0          2 0.363 0.354 0.696
    ##  3       3 2011-01-03      1     0     1       0       1          1          1 0.196 0.189 0.437
    ##  4       4 2011-01-04      1     0     1       0       2          1          1 0.2   0.212 0.590
    ##  5       5 2011-01-05      1     0     1       0       3          1          1 0.227 0.229 0.437
    ##  6       6 2011-01-06      1     0     1       0       4          1          1 0.204 0.233 0.518
    ##  7       7 2011-01-07      1     0     1       0       5          1          2 0.197 0.209 0.499
    ##  8       8 2011-01-08      1     0     1       0       6          0          2 0.165 0.162 0.536
    ##  9       9 2011-01-09      1     0     1       0       0          0          1 0.138 0.116 0.434
    ## 10      10 2011-01-10      1     0     1       0       1          1          1 0.151 0.151 0.483
    ## # … with 721 more rows, and 4 more variables: windspeed <dbl>, casual <dbl>, registered <dbl>,
    ## #   cnt <dbl>
…
``` r
#split data set into training and test sets
set.seed(1)
train <- sample(1:nrow(paramsData), size = nrow(paramsData)*0.7)
test <- dplyr::setdiff(1:nrow(paramsData), train)

train <- paramsData[train, ]
test <- paramsData[test, ]

#view the data sets
train
```

    ## # A tibble: 73 x 22
    ##    instant dteday     season    yr  mnth holiday weekday workingday weathersit  temp atemp   hum
    ##      <dbl> <date>      <dbl> <dbl> <dbl>   <dbl>   <dbl>      <dbl>      <dbl> <dbl> <dbl> <dbl>
    ##  1     192 2011-07-11      3     0     7       0       1          1          1 0.762 0.730 0.636
    ##  2     269 2011-09-26      4     0     9       0       1          1          2 0.649 0.589 0.848
    ##  3     416 2012-02-20      1     1     2       1       1          0          1 0.28  0.273 0.508
    ##  4     647 2012-10-08      4     1    10       1       1          0          2 0.383 0.388 0.710
    ##  5     143 2011-05-23      2     0     5       0       1          1          2 0.632 0.590 0.81 
    ##  6     626 2012-09-17      3     1     9       0       1          1          2 0.581 0.553 0.735
    ##  7     654 2012-10-15      4     1    10       0       1          1          2 0.562 0.539 0.708
    ##  8     451 2012-03-26      2     1     3       0       1          1          1 0.446 0.439 0.478
    ##  9     430 2012-03-05      1     1     3       0       1          1          1 0.243 0.241 0.506
    ## 10      38 2011-02-07      1     0     2       0       1          1          1 0.272 0.304 0.738
    ## # … with 63 more rows, and 10 more variables: windspeed <dbl>, casual <dbl>, registered <dbl>,
    ## #   cnt <dbl>, status <chr>, SeasonType <chr>, yearType <chr>, workingdayType <chr>,
    ## #   weathersitType <chr>, mnth1 <chr>

``` r
test
```

    ## # A tibble: 32 x 22
    ##    instant dteday     season    yr  mnth holiday weekday workingday weathersit  temp atemp   hum
    ##      <dbl> <date>      <dbl> <dbl> <dbl>   <dbl>   <dbl>      <dbl>      <dbl> <dbl> <dbl> <dbl>
    ##  1       3 2011-01-03      1     0     1       0       1          1          1 0.196 0.189 0.437
    ##  2      17 2011-01-17      1     0     1       1       1          0          2 0.176 0.177 0.538
    ##  3      45 2011-02-14      1     0     2       0       1          1          1 0.415 0.398 0.376
    ##  4      59 2011-02-28      1     0     2       0       1          1          2 0.407 0.400 0.876
    ##  5      66 2011-03-07      1     0     3       0       1          1          1 0.262 0.238 0.551
    ##  6     101 2011-04-11      2     0     4       0       1          1          2 0.596 0.565 0.717
    ##  7     157 2011-06-06      2     0     6       0       1          1          1 0.678 0.622 0.6  
    ##  8     262 2011-09-19      3     0     9       0       1          1          2 0.549 0.530 0.69 
    ##  9     276 2011-10-03      4     0    10       0       1          1          2 0.384 0.392 0.761
    ## 10     283 2011-10-10      4     0    10       1       1          0          1 0.571 0.543 0.734
    ## # … with 22 more rows, and 10 more variables: windspeed <dbl>, casual <dbl>, registered <dbl>,
    ## #   cnt <dbl>, status <chr>, SeasonType <chr>, yearType <chr>, workingdayType <chr>,
    ## #   weathersitType <chr>, mnth1 <chr>
…
### Modeling of the second group member

To select a model, we use the `stepAIC()` function. In the `stepAIC()`
function, we first specify the model with only main effects and the data
set to be used. Then we specify the most complex model and the most
simple model as upper and lower respectively in the scope.

``` r
#creat new data sets trainNew and testNew
trainNew <- train[, c(3:5, 9:13, 16)]
trainNew
```

    ## # A tibble: 73 x 9
    ##    season    yr  mnth weathersit  temp atemp   hum windspeed   cnt
    ##     <dbl> <dbl> <dbl>      <dbl> <dbl> <dbl> <dbl>     <dbl> <dbl>
    ##  1      3     0     7          1 0.762 0.730 0.636    0.282   4086
    ##  2      4     0     9          2 0.649 0.589 0.848    0.111   4630
    ##  3      1     1     2          1 0.28  0.273 0.508    0.229   3129
    ##  4      4     1    10          2 0.383 0.388 0.710    0.190   5478
    ##  5      2     0     5          2 0.632 0.590 0.81     0.234   4274
    ##  6      3     1     9          2 0.581 0.553 0.735    0.152   6869
    ##  7      4     1    10          2 0.562 0.539 0.708    0.296   5875
    ##  8      2     1     3          1 0.446 0.439 0.478    0.387   5558
    ##  9      1     1     3          1 0.243 0.241 0.506    0.229   3333
    ## 10      1     0     2          1 0.272 0.304 0.738    0.0454  1712
    ## # … with 63 more rows

``` r
testNew <- test[, c(3:5, 9:13, 16)]
testNew
```

    ## # A tibble: 32 x 9
    ##    season    yr  mnth weathersit  temp atemp   hum windspeed   cnt
    ##     <dbl> <dbl> <dbl>      <dbl> <dbl> <dbl> <dbl>     <dbl> <dbl>
    ##  1      1     0     1          1 0.196 0.189 0.437    0.248   1349
    ##  2      1     0     1          2 0.176 0.177 0.538    0.194   1000
    ##  3      1     0     2          1 0.415 0.398 0.376    0.418   1913
    ##  4      1     0     2          2 0.407 0.400 0.876    0.290   1446
    ##  5      1     0     3          1 0.262 0.238 0.551    0.341   1872
    ##  6      2     0     4          2 0.596 0.565 0.717    0.324   3348
    ##  7      2     0     6          1 0.678 0.622 0.6      0.122   4548
    ##  8      3     0     9          2 0.549 0.530 0.69     0.152   4539
    ##  9      4     0    10          2 0.384 0.392 0.761    0.0833  3570
    ## 10      4     0    10          1 0.571 0.543 0.734    0.0423  5117
    ## # … with 22 more rows
…
