…
``` r
#read in data
dayData <- read_csv("day.csv")
dayData
```

    ## # A tibble: 731 x 16
    ##    instant dteday     season    yr  mnth holiday weekday workingday weathersit  temp atemp   hum windspeed
    ##      <dbl> <date>      <dbl> <dbl> <dbl>   <dbl>   <dbl>      <dbl>      <dbl> <dbl> <dbl> <dbl>     <dbl>
    ##  1       1 2011-01-01      1     0     1       0       6          0          2 0.344 0.364 0.806    0.160 
    ##  2       2 2011-01-02      1     0     1       0       0          0          2 0.363 0.354 0.696    0.249 
    ##  3       3 2011-01-03      1     0     1       0       1          1          1 0.196 0.189 0.437    0.248 
    ##  4       4 2011-01-04      1     0     1       0       2          1          1 0.2   0.212 0.590    0.160 
    ##  5       5 2011-01-05      1     0     1       0       3          1          1 0.227 0.229 0.437    0.187 
    ##  6       6 2011-01-06      1     0     1       0       4          1          1 0.204 0.233 0.518    0.0896
    ##  7       7 2011-01-07      1     0     1       0       5          1          2 0.197 0.209 0.499    0.169 
    ##  8       8 2011-01-08      1     0     1       0       6          0          2 0.165 0.162 0.536    0.267 
    ##  9       9 2011-01-09      1     0     1       0       0          0          1 0.138 0.116 0.434    0.362 
    ## 10      10 2011-01-10      1     0     1       0       1          1          1 0.151 0.151 0.483    0.223 
    ## # … with 721 more rows, and 3 more variables: casual <dbl>, registered <dbl>, cnt <dbl>
…
``` r
#split data set into training and test sets
set.seed(1)
train <- sample(1:nrow(paramsData), size = nrow(paramsData)*0.7)
test <- dplyr::setdiff(1:nrow(paramsData), train)

train <- paramsData[train, ]
test <- paramsData[test, ]

#view the data sets
train
```

    ## # A tibble: 73 x 22
    ##    instant dteday     season    yr  mnth holiday weekday workingday weathersit  temp atemp   hum windspeed
    ##      <dbl> <date>      <dbl> <dbl> <dbl>   <dbl>   <dbl>      <dbl>      <dbl> <dbl> <dbl> <dbl>     <dbl>
    ##  1     190 2011-07-09      3     0     7       0       6          0          1 0.733 0.664 0.609    0.168 
    ##  2     267 2011-09-24      4     0     9       0       6          0          2 0.607 0.564 0.862    0.0784
    ##  3     414 2012-02-18      1     1     2       0       6          0          1 0.347 0.355 0.535    0.191 
    ##  4     645 2012-10-06      4     1    10       0       6          0          1 0.554 0.539 0.664    0.268 
    ##  5     141 2011-05-21      2     0     5       0       6          0          1 0.602 0.572 0.627    0.121 
    ##  6     624 2012-09-15      3     1     9       0       6          0          1 0.608 0.586 0.502    0.248 
    ##  7     652 2012-10-13      4     1    10       0       6          0          1 0.393 0.391 0.495    0.146 
    ##  8     449 2012-03-24      2     1     3       0       6          0          2 0.502 0.487 0.885    0.193 
    ##  9     428 2012-03-03      1     1     3       0       6          0          2 0.414 0.413 0.621    0.161 
    ## 10      36 2011-02-05      1     0     2       0       6          0          2 0.233 0.243 0.929    0.161 
    ## # … with 63 more rows, and 9 more variables: casual <dbl>, registered <dbl>, cnt <dbl>, status <chr>,
    ## #   SeasonType <chr>, yearType <chr>, workingdayType <chr>, weathersitType <chr>, mnth1 <chr>

``` r
test
```

    ## # A tibble: 32 x 22
    ##    instant dteday     season    yr  mnth holiday weekday workingday weathersit  temp atemp   hum windspeed
    ##      <dbl> <date>      <dbl> <dbl> <dbl>   <dbl>   <dbl>      <dbl>      <dbl> <dbl> <dbl> <dbl>     <dbl>
    ##  1       1 2011-01-01      1     0     1       0       6          0          2 0.344 0.364 0.806    0.160 
    ##  2      15 2011-01-15      1     0     1       0       6          0          2 0.233 0.248 0.499    0.158 
    ##  3      43 2011-02-12      1     0     2       0       6          0          1 0.222 0.233 0.544    0.203 
    ##  4      57 2011-02-26      1     0     2       0       6          0          1 0.282 0.282 0.538    0.187 
    ##  5      64 2011-03-05      1     0     3       0       6          0          2 0.384 0.379 0.789    0.252 
    ##  6      99 2011-04-09      2     0     4       0       6          0          2 0.342 0.342 0.878    0.133 
    ##  7     155 2011-06-04      2     0     6       0       6          0          1 0.635 0.595 0.456    0.123 
    ##  8     260 2011-09-17      3     0     9       0       6          0          2 0.492 0.479 0.718    0.190 
    ##  9     274 2011-10-01      4     0    10       0       6          0          2 0.41  0.413 0.754    0.292 
    ## 10     281 2011-10-08      4     0    10       0       6          0          1 0.522 0.513 0.701    0.0454
    ## # … with 22 more rows, and 9 more variables: casual <dbl>, registered <dbl>, cnt <dbl>, status <chr>,
    ## #   SeasonType <chr>, yearType <chr>, workingdayType <chr>, weathersitType <chr>, mnth1 <chr>
…
### Modeling of the second group member

To select a model, we use the `stepAIC()` function. In the `stepAIC()`
function, we first specify the model with only main effects and the data
set to be used. Then we specify the most complex model and the most
simple model as upper and lower respectively in the scope.

``` r
#creat new data sets trainNew and testNew
trainNew <- train[, c(3:5, 9:13, 16)]
trainNew
```

    ## # A tibble: 73 x 9
    ##    season    yr  mnth weathersit  temp atemp   hum windspeed   cnt
    ##     <dbl> <dbl> <dbl>      <dbl> <dbl> <dbl> <dbl>     <dbl> <dbl>
    ##  1      3     0     7          1 0.733 0.664 0.609    0.168   5336
    ##  2      4     0     9          2 0.607 0.564 0.862    0.0784  5423
    ##  3      1     1     2          1 0.347 0.355 0.535    0.191   4318
    ##  4      4     1    10          1 0.554 0.539 0.664    0.268   7965
    ##  5      2     0     5          1 0.602 0.572 0.627    0.121   5805
    ##  6      3     1     9          1 0.608 0.586 0.502    0.248   8714
    ##  7      4     1    10          1 0.393 0.391 0.495    0.146   7109
    ##  8      2     1     3          2 0.502 0.487 0.885    0.193   3372
    ##  9      1     1     3          2 0.414 0.413 0.621    0.161   4066
    ## 10      1     0     2          2 0.233 0.243 0.929    0.161   1005
    ## # … with 63 more rows

``` r
testNew <- test[, c(3:5, 9:13, 16)]
testNew
```

    ## # A tibble: 32 x 9
    ##    season    yr  mnth weathersit  temp atemp   hum windspeed   cnt
    ##     <dbl> <dbl> <dbl>      <dbl> <dbl> <dbl> <dbl>     <dbl> <dbl>
    ##  1      1     0     1          2 0.344 0.364 0.806    0.160    985
    ##  2      1     0     1          2 0.233 0.248 0.499    0.158   1248
    ##  3      1     0     2          1 0.222 0.233 0.544    0.203   1472
    ##  4      1     0     2          1 0.282 0.282 0.538    0.187   1969
    ##  5      1     0     3          2 0.384 0.379 0.789    0.252   2077
    ##  6      2     0     4          2 0.342 0.342 0.878    0.133   2455
    ##  7      2     0     6          1 0.635 0.595 0.456    0.123   5342
    ##  8      3     0     9          2 0.492 0.479 0.718    0.190   4511
    ##  9      4     0    10          2 0.41  0.413 0.754    0.292   2429
    ## 10      4     0    10          1 0.522 0.513 0.701    0.0454  5409
    ## # … with 22 more rows
…
