…
``` r
#read in data
dayData <- read_csv("day.csv")
dayData
```

    ## # A tibble: 731 x 16
    ##    instant dteday     season    yr  mnth holiday weekday workingday weathersit
    ##      <dbl> <date>      <dbl> <dbl> <dbl>   <dbl>   <dbl>      <dbl>      <dbl>
    ##  1       1 2011-01-01      1     0     1       0       6          0          2
    ##  2       2 2011-01-02      1     0     1       0       0          0          2
    ##  3       3 2011-01-03      1     0     1       0       1          1          1
    ##  4       4 2011-01-04      1     0     1       0       2          1          1
    ##  5       5 2011-01-05      1     0     1       0       3          1          1
    ##  6       6 2011-01-06      1     0     1       0       4          1          1
    ##  7       7 2011-01-07      1     0     1       0       5          1          2
    ##  8       8 2011-01-08      1     0     1       0       6          0          2
    ##  9       9 2011-01-09      1     0     1       0       0          0          1
    ## 10      10 2011-01-10      1     0     1       0       1          1          1
    ## # … with 721 more rows, and 7 more variables: temp <dbl>, atemp <dbl>,
    ## #   hum <dbl>, windspeed <dbl>, casual <dbl>, registered <dbl>, cnt <dbl>
…
``` r
#split data set into training and test sets
set.seed(1)
train <- sample(1:nrow(paramsData), size = nrow(paramsData)*0.7)
test <- dplyr::setdiff(1:nrow(paramsData), train)

train <- paramsData[train, ]
test <- paramsData[test, ]

train
```

    ## # A tibble: 73 x 22
    ##    instant dteday     season    yr  mnth holiday weekday workingday weathersit
    ##      <dbl> <date>      <dbl> <dbl> <dbl>   <dbl>   <dbl>      <dbl>      <dbl>
    ##  1     472 2012-04-16      2     1     4       1       1          0          1
    ##  2     269 2011-09-26      4     0     9       0       1          1          2
    ##  3       3 2011-01-03      1     0     1       0       1          1          1
    ##  4     234 2011-08-22      3     0     8       0       1          1          1
    ##  5     605 2012-08-27      3     1     8       0       1          1          1
    ##  6     297 2011-10-24      4     0    10       0       1          1          1
    ##  7      94 2011-04-04      2     0     4       0       1          1          1
    ##  8     570 2012-07-23      3     1     7       0       1          1          1
    ##  9     409 2012-02-13      1     1     2       0       1          1          1
    ## 10     353 2011-12-19      4     0    12       0       1          1          1
    ## # … with 63 more rows, and 13 more variables: temp <dbl>, atemp <dbl>,
    ## #   hum <dbl>, windspeed <dbl>, casual <dbl>, registered <dbl>, cnt <dbl>,
    ## #   status <chr>, SeasonType <chr>, yearType <chr>, workingdayType <chr>,
    ## #   weathersitType <chr>, mnth1 <chr>

``` r
test
```

    ## # A tibble: 32 x 22
    ##    instant dteday     season    yr  mnth holiday weekday workingday weathersit
    ##      <dbl> <date>      <dbl> <dbl> <dbl>   <dbl>   <dbl>      <dbl>      <dbl>
    ##  1      17 2011-01-17      1     0     1       1       1          0          2
    ##  2      24 2011-01-24      1     0     1       0       1          1          1
    ##  3      31 2011-01-31      1     0     1       0       1          1          2
    ##  4      52 2011-02-21      1     0     2       1       1          0          2
    ##  5      59 2011-02-28      1     0     2       0       1          1          2
    ##  6      66 2011-03-07      1     0     3       0       1          1          1
    ##  7      80 2011-03-21      2     0     3       0       1          1          2
    ##  8     101 2011-04-11      2     0     4       0       1          1          2
    ##  9     108 2011-04-18      2     0     4       0       1          1          1
    ## 10     129 2011-05-09      2     0     5       0       1          1          1
    ## # … with 22 more rows, and 13 more variables: temp <dbl>, atemp <dbl>,
    ## #   hum <dbl>, windspeed <dbl>, casual <dbl>, registered <dbl>, cnt <dbl>,
    ## #   status <chr>, SeasonType <chr>, yearType <chr>, workingdayType <chr>,
    ## #   weathersitType <chr>, mnth1 <chr>
…
### Modeling of the second group member

To select a model, we use the `stepAIC()` function. In the `stepAIC()`
function, we first specify the model with only main effects and the data
set to be used. Then we specify the most complex model and the most
simple model as upper and lower respectively in the scope.

``` r
#creat new data sets trainNew and testNew
trainNew <- train[, c(3:5, 9:13, 16)]
trainNew
```

    ## # A tibble: 72 x 9
    ##    season    yr  mnth weathersit  temp atemp   hum windspeed   cnt
    ##     <dbl> <dbl> <dbl>      <dbl> <dbl> <dbl> <dbl>     <dbl> <dbl>
    ##  1      2     1     4          1 0.664 0.615 0.562     0.285  6370
    ##  2      4     0     9          2 0.649 0.589 0.848     0.111  4630
    ##  3      1     0     1          1 0.196 0.189 0.437     0.248  1349
    ##  4      3     0     8          1 0.692 0.638 0.47      0.277  4758
    ##  5      3     1     8          1 0.703 0.655 0.730     0.129  6917
    ##  6      4     0    10          1 0.463 0.457 0.772     0.119  4187
    ##  7      2     0     4          1 0.573 0.543 0.426     0.386  3115
    ##  8      3     1     7          1 0.742 0.690 0.694     0.139  6966
    ##  9      1     1     2          1 0.222 0.228 0.411     0.167  3422
    ## 10      4     0    12          1 0.277 0.281 0.638     0.173  3403
    ## # … with 62 more rows

``` r
testNew <- test[, c(3:5, 9:13, 16)]
testNew
```

    ## # A tibble: 32 x 9
    ##    season    yr  mnth weathersit   temp atemp   hum windspeed   cnt
    ##     <dbl> <dbl> <dbl>      <dbl>  <dbl> <dbl> <dbl>     <dbl> <dbl>
    ##  1      1     0     1          2 0.176  0.177 0.538     0.194  1000
    ##  2      1     0     1          1 0.0974 0.118 0.492     0.158  1416
    ##  3      1     0     1          2 0.181  0.186 0.604     0.187  1501
    ##  4      1     0     2          2 0.303  0.284 0.605     0.308  1107
    ##  5      1     0     2          2 0.407  0.400 0.876     0.290  1446
    ##  6      1     0     3          1 0.262  0.238 0.551     0.341  1872
    ##  7      2     0     3          2 0.430  0.410 0.737     0.289  2077
    ##  8      2     0     4          2 0.596  0.565 0.717     0.324  3348
    ##  9      2     0     4          1 0.512  0.503 0.542     0.164  3429
    ## 10      2     0     5          1 0.532  0.525 0.589     0.176  4362
    ## # … with 22 more rows
…
