ST558 Project 2
…
#load packages
library(readr)

## Warning: package 'readr' was built under R version 4.0.5

library(dplyr)

## Warning: package 'dplyr' was built under R version 4.0.5

#read in data
dayData <- read_csv("day.csv")
dayData

## # A tibble: 731 x 16
##    instant dteday     season    yr  mnth holiday weekday workingday weathersit
##      <dbl> <date>      <dbl> <dbl> <dbl>   <dbl>   <dbl>      <dbl>      <dbl>
##  1       1 2011-01-01      1     0     1       0       6          0          2
##  2       2 2011-01-02      1     0     1       0       0          0          2
##  3       3 2011-01-03      1     0     1       0       1          1          1
##  4       4 2011-01-04      1     0     1       0       2          1          1
##  5       5 2011-01-05      1     0     1       0       3          1          1
##  6       6 2011-01-06      1     0     1       0       4          1          1
##  7       7 2011-01-07      1     0     1       0       5          1          2
##  8       8 2011-01-08      1     0     1       0       6          0          2
##  9       9 2011-01-09      1     0     1       0       0          0          1
## 10      10 2011-01-10      1     0     1       0       1          1          1
## # ... with 721 more rows, and 7 more variables: temp <dbl>, atemp <dbl>,
## #   hum <dbl>, windspeed <dbl>, casual <dbl>, registered <dbl>, cnt <dbl>
…
#split data set into training and test sets
set.seed(1)
train <- sample(1:nrow(paramsData), size = nrow(paramsData)*0.7)
test <- dplyr::setdiff(1:nrow(paramsData), train)

train <- paramsData[train, ]
test <- paramsData[test, ]

train

## # A tibble: 73 x 21
##    instant dteday     season    yr  mnth holiday weekday workingday weathersit
##      <dbl> <date>      <dbl> <dbl> <dbl>   <dbl>   <dbl>      <dbl>      <dbl>
##  1     472 2012-04-16      2     1     4       1       1          0          1
##  2     269 2011-09-26      4     0     9       0       1          1          2
##  3       3 2011-01-03      1     0     1       0       1          1          1
##  4     234 2011-08-22      3     0     8       0       1          1          1
##  5     605 2012-08-27      3     1     8       0       1          1          1
##  6     297 2011-10-24      4     0    10       0       1          1          1
##  7      94 2011-04-04      2     0     4       0       1          1          1
##  8     570 2012-07-23      3     1     7       0       1          1          1
##  9     409 2012-02-13      1     1     2       0       1          1          1
## 10     353 2011-12-19      4     0    12       0       1          1          1
## # ... with 63 more rows, and 12 more variables: temp <dbl>, atemp <dbl>,
## #   hum <dbl>, windspeed <dbl>, casual <dbl>, registered <dbl>, cnt <dbl>,
## #   status <chr>, SeasonType <chr>, yearType <chr>, workingdayType <chr>,
## #   weathersitType <chr>

test

## # A tibble: 32 x 21
##    instant dteday     season    yr  mnth holiday weekday workingday weathersit
##      <dbl> <date>      <dbl> <dbl> <dbl>   <dbl>   <dbl>      <dbl>      <dbl>
##  1      17 2011-01-17      1     0     1       1       1          0          2
##  2      24 2011-01-24      1     0     1       0       1          1          1
##  3      31 2011-01-31      1     0     1       0       1          1          2
##  4      52 2011-02-21      1     0     2       1       1          0          2
##  5      59 2011-02-28      1     0     2       0       1          1          2
##  6      66 2011-03-07      1     0     3       0       1          1          1
##  7      80 2011-03-21      2     0     3       0       1          1          2
##  8     101 2011-04-11      2     0     4       0       1          1          2
##  9     108 2011-04-18      2     0     4       0       1          1          1
## 10     129 2011-05-09      2     0     5       0       1          1          1
## # ... with 22 more rows, and 12 more variables: temp <dbl>, atemp <dbl>,
## #   hum <dbl>, windspeed <dbl>, casual <dbl>, registered <dbl>, cnt <dbl>,
## #   status <chr>, SeasonType <chr>, yearType <chr>, workingdayType <chr>,
## #   weathersitType <chr>
…
