…
``` r
#read in data
dayData <- read_csv("day.csv")
dayData
```

    ## # A tibble: 731 x 16
    ##    instant dteday     season    yr  mnth holiday weekday workingday weathersit  temp atemp   hum windspeed
    ##      <dbl> <date>      <dbl> <dbl> <dbl>   <dbl>   <dbl>      <dbl>      <dbl> <dbl> <dbl> <dbl>     <dbl>
    ##  1       1 2011-01-01      1     0     1       0       6          0          2 0.344 0.364 0.806    0.160 
    ##  2       2 2011-01-02      1     0     1       0       0          0          2 0.363 0.354 0.696    0.249 
    ##  3       3 2011-01-03      1     0     1       0       1          1          1 0.196 0.189 0.437    0.248 
    ##  4       4 2011-01-04      1     0     1       0       2          1          1 0.2   0.212 0.590    0.160 
    ##  5       5 2011-01-05      1     0     1       0       3          1          1 0.227 0.229 0.437    0.187 
    ##  6       6 2011-01-06      1     0     1       0       4          1          1 0.204 0.233 0.518    0.0896
    ##  7       7 2011-01-07      1     0     1       0       5          1          2 0.197 0.209 0.499    0.169 
    ##  8       8 2011-01-08      1     0     1       0       6          0          2 0.165 0.162 0.536    0.267 
    ##  9       9 2011-01-09      1     0     1       0       0          0          1 0.138 0.116 0.434    0.362 
    ## 10      10 2011-01-10      1     0     1       0       1          1          1 0.151 0.151 0.483    0.223 
    ## # … with 721 more rows, and 3 more variables: casual <dbl>, registered <dbl>, cnt <dbl>
…
``` r
#split data set into training and test sets
set.seed(1)
train <- sample(1:nrow(paramsData), size = nrow(paramsData)*0.7)
test <- dplyr::setdiff(1:nrow(paramsData), train)

train <- paramsData[train, ]
test <- paramsData[test, ]

#view the data sets
train
```

    ## # A tibble: 73 x 22
    ##    instant dteday     season    yr  mnth holiday weekday workingday weathersit  temp atemp   hum windspeed
    ##      <dbl> <date>      <dbl> <dbl> <dbl>   <dbl>   <dbl>      <dbl>      <dbl> <dbl> <dbl> <dbl>     <dbl>
    ##  1     191 2011-07-10      3     0     7       0       0          0          1 0.748 0.690 0.578    0.183 
    ##  2     268 2011-09-25      4     0     9       0       0          0          2 0.634 0.573 0.845    0.0504
    ##  3     415 2012-02-19      1     1     2       0       0          0          2 0.28  0.266 0.516    0.253 
    ##  4     646 2012-10-07      4     1    10       0       0          0          2 0.416 0.420 0.708    0.141 
    ##  5     142 2011-05-22      2     0     5       0       0          0          1 0.604 0.574 0.750    0.148 
    ##  6     625 2012-09-16      3     1     9       0       0          0          1 0.58  0.563 0.57     0.0902
    ##  7     653 2012-10-14      4     1    10       0       0          0          1 0.522 0.508 0.640    0.279 
    ##  8     450 2012-03-25      2     1     3       0       0          0          2 0.438 0.437 0.881    0.221 
    ##  9     429 2012-03-04      1     1     3       0       0          0          1 0.326 0.303 0.403    0.335 
    ## 10      37 2011-02-06      1     0     2       0       0          0          1 0.286 0.292 0.568    0.142 
    ## # … with 63 more rows, and 9 more variables: casual <dbl>, registered <dbl>, cnt <dbl>, status <chr>,
    ## #   SeasonType <chr>, yearType <chr>, workingdayType <chr>, weathersitType <chr>, mnth1 <chr>

``` r
test
```

    ## # A tibble: 32 x 22
    ##    instant dteday     season    yr  mnth holiday weekday workingday weathersit  temp atemp   hum windspeed
    ##      <dbl> <date>      <dbl> <dbl> <dbl>   <dbl>   <dbl>      <dbl>      <dbl> <dbl> <dbl> <dbl>     <dbl>
    ##  1       2 2011-01-02      1     0     1       0       0          0          2 0.363 0.354 0.696    0.249 
    ##  2      16 2011-01-16      1     0     1       0       0          0          1 0.232 0.234 0.484    0.188 
    ##  3      44 2011-02-13      1     0     2       0       0          0          1 0.317 0.324 0.457    0.261 
    ##  4      58 2011-02-27      1     0     2       0       0          0          1 0.343 0.351 0.68     0.125 
    ##  5      65 2011-03-06      1     0     3       0       0          0          2 0.377 0.366 0.948    0.343 
    ##  6     100 2011-04-10      2     0     4       0       0          0          2 0.427 0.427 0.858    0.147 
    ##  7     156 2011-06-05      2     0     6       0       0          0          2 0.648 0.617 0.652    0.139 
    ##  8     261 2011-09-18      3     0     9       0       0          0          1 0.507 0.491 0.695    0.178 
    ##  9     275 2011-10-02      4     0    10       0       0          0          2 0.357 0.345 0.792    0.222 
    ## 10     282 2011-10-09      4     0    10       0       0          0          1 0.541 0.524 0.728    0.0635
    ## # … with 22 more rows, and 9 more variables: casual <dbl>, registered <dbl>, cnt <dbl>, status <chr>,
    ## #   SeasonType <chr>, yearType <chr>, workingdayType <chr>, weathersitType <chr>, mnth1 <chr>
…
### Modeling of the second group member

To select a model, we use the `stepAIC()` function. In the `stepAIC()`
function, we first specify the model with only main effects and the data
set to be used. Then we specify the most complex model and the most
simple model as upper and lower respectively in the scope.

``` r
#creat new data sets trainNew and testNew
trainNew <- train[, c(3:5, 9:13, 16)]
trainNew
```

    ## # A tibble: 73 x 9
    ##    season    yr  mnth weathersit  temp atemp   hum windspeed   cnt
    ##     <dbl> <dbl> <dbl>      <dbl> <dbl> <dbl> <dbl>     <dbl> <dbl>
    ##  1      3     0     7          1 0.748 0.690 0.578    0.183   4881
    ##  2      4     0     9          2 0.634 0.573 0.845    0.0504  5010
    ##  3      1     1     2          2 0.28  0.266 0.516    0.253   2689
    ##  4      4     1    10          2 0.416 0.420 0.708    0.141   3510
    ##  5      2     0     5          1 0.604 0.574 0.750    0.148   4660
    ##  6      3     1     9          1 0.58  0.563 0.57     0.0902  7333
    ##  7      4     1    10          1 0.522 0.508 0.640    0.279   6639
    ##  8      2     1     3          2 0.438 0.437 0.881    0.221   4996
    ##  9      1     1     3          1 0.326 0.303 0.403    0.335   3423
    ## 10      1     0     2          1 0.286 0.292 0.568    0.142   1623
    ## # … with 63 more rows

``` r
testNew <- test[, c(3:5, 9:13, 16)]
testNew
```

    ## # A tibble: 32 x 9
    ##    season    yr  mnth weathersit  temp atemp   hum windspeed   cnt
    ##     <dbl> <dbl> <dbl>      <dbl> <dbl> <dbl> <dbl>     <dbl> <dbl>
    ##  1      1     0     1          2 0.363 0.354 0.696    0.249    801
    ##  2      1     0     1          1 0.232 0.234 0.484    0.188   1204
    ##  3      1     0     2          1 0.317 0.324 0.457    0.261   1589
    ##  4      1     0     2          1 0.343 0.351 0.68     0.125   2402
    ##  5      1     0     3          2 0.377 0.366 0.948    0.343    605
    ##  6      2     0     4          2 0.427 0.427 0.858    0.147   2895
    ##  7      2     0     6          2 0.648 0.617 0.652    0.139   4906
    ##  8      3     0     9          1 0.507 0.491 0.695    0.178   4274
    ##  9      4     0    10          2 0.357 0.345 0.792    0.222   2918
    ## 10      4     0    10          1 0.541 0.524 0.728    0.0635  5511
    ## # … with 22 more rows
…
