…
``` r
#read in data
dayData <- read_csv("day.csv")
dayData
```

    ## # A tibble: 731 x 16
    ##    instant dteday     season    yr  mnth holiday weekday workingday weathersit  temp atemp   hum
    ##      <dbl> <date>      <dbl> <dbl> <dbl>   <dbl>   <dbl>      <dbl>      <dbl> <dbl> <dbl> <dbl>
    ##  1       1 2011-01-01      1     0     1       0       6          0          2 0.344 0.364 0.806
    ##  2       2 2011-01-02      1     0     1       0       0          0          2 0.363 0.354 0.696
    ##  3       3 2011-01-03      1     0     1       0       1          1          1 0.196 0.189 0.437
    ##  4       4 2011-01-04      1     0     1       0       2          1          1 0.2   0.212 0.590
    ##  5       5 2011-01-05      1     0     1       0       3          1          1 0.227 0.229 0.437
    ##  6       6 2011-01-06      1     0     1       0       4          1          1 0.204 0.233 0.518
    ##  7       7 2011-01-07      1     0     1       0       5          1          2 0.197 0.209 0.499
    ##  8       8 2011-01-08      1     0     1       0       6          0          2 0.165 0.162 0.536
    ##  9       9 2011-01-09      1     0     1       0       0          0          1 0.138 0.116 0.434
    ## 10      10 2011-01-10      1     0     1       0       1          1          1 0.151 0.151 0.483
    ## # … with 721 more rows, and 4 more variables: windspeed <dbl>, casual <dbl>, registered <dbl>,
    ## #   cnt <dbl>
…
``` r
#split data set into training and test sets
set.seed(1)
train <- sample(1:nrow(paramsData), size = nrow(paramsData)*0.7)
test <- dplyr::setdiff(1:nrow(paramsData), train)

train <- paramsData[train, ]
test <- paramsData[test, ]

#view the data sets
train
```

    ## # A tibble: 72 x 22
    ##    instant dteday     season    yr  mnth holiday weekday workingday weathersit  temp atemp   hum
    ##      <dbl> <date>      <dbl> <dbl> <dbl>   <dbl>   <dbl>      <dbl>      <dbl> <dbl> <dbl> <dbl>
    ##  1     195 2011-07-14      3     0     7       0       4          1          1 0.681 0.635 0.476
    ##  2     272 2011-09-29      4     0     9       0       4          1          1 0.617 0.575 0.699
    ##  3     412 2012-02-16      1     1     2       0       4          1          2 0.317 0.330 0.753
    ##  4     643 2012-10-04      4     1    10       0       4          1          2 0.658 0.608 0.723
    ##  5     146 2011-05-26      2     0     5       0       4          1          1 0.708 0.655 0.678
    ##  6     622 2012-09-13      3     1     9       0       4          1          1 0.612 0.580 0.637
    ##  7     650 2012-10-11      4     1    10       0       4          1          1 0.435 0.431 0.463
    ##  8     454 2012-03-29      2     1     3       0       4          1          1 0.494 0.482 0.439
    ##  9     426 2012-03-01      1     1     3       0       4          1          1 0.486 0.475 0.615
    ## 10      41 2011-02-10      1     0     2       0       4          1          1 0.144 0.150 0.437
    ## # … with 62 more rows, and 10 more variables: windspeed <dbl>, casual <dbl>, registered <dbl>,
    ## #   cnt <dbl>, status <chr>, SeasonType <chr>, yearType <chr>, workingdayType <chr>,
    ## #   weathersitType <chr>, mnth1 <chr>

``` r
test
```

    ## # A tibble: 32 x 22
    ##    instant dteday     season    yr  mnth holiday weekday workingday weathersit  temp atemp   hum
    ##      <dbl> <date>      <dbl> <dbl> <dbl>   <dbl>   <dbl>      <dbl>      <dbl> <dbl> <dbl> <dbl>
    ##  1       6 2011-01-06      1     0     1       0       4          1          1 0.204 0.233 0.518
    ##  2      20 2011-01-20      1     0     1       0       4          1          2 0.262 0.255 0.538
    ##  3      48 2011-02-17      1     0     2       0       4          1          1 0.436 0.429 0.505
    ##  4      62 2011-03-03      1     0     3       0       4          1          1 0.198 0.200 0.318
    ##  5      69 2011-03-10      1     0     3       0       4          1          3 0.389 0.386 0    
    ##  6     104 2011-04-14      2     0     4       0       4          1          1 0.468 0.463 0.540
    ##  7     167 2011-06-16      2     0     6       0       4          1          2 0.628 0.595 0.688
    ##  8     258 2011-09-15      3     0     9       0       4          1          2 0.578 0.554 0.709
    ##  9     265 2011-09-22      3     0     9       0       4          1          2 0.628 0.555 0.902
    ## 10     279 2011-10-06      4     0    10       0       4          1          1 0.494 0.480 0.621
    ## # … with 22 more rows, and 10 more variables: windspeed <dbl>, casual <dbl>, registered <dbl>,
    ## #   cnt <dbl>, status <chr>, SeasonType <chr>, yearType <chr>, workingdayType <chr>,
    ## #   weathersitType <chr>, mnth1 <chr>
…
### Modeling of the second group member

To select a model, we use the `stepAIC()` function. In the `stepAIC()`
function, we first specify the model with only main effects and the data
set to be used. Then we specify the most complex model and the most
simple model as upper and lower respectively in the scope.

``` r
#creat new data sets trainNew and testNew
trainNew <- train[, c(3:5, 9:13, 16)]
trainNew
```

    ## # A tibble: 72 x 9
    ##    season    yr  mnth weathersit  temp atemp   hum windspeed   cnt
    ##     <dbl> <dbl> <dbl>      <dbl> <dbl> <dbl> <dbl>     <dbl> <dbl>
    ##  1      3     0     7          1 0.681 0.635 0.476    0.241   5084
    ##  2      4     0     9          1 0.617 0.575 0.699    0.173   4839
    ##  3      1     1     2          2 0.317 0.330 0.753    0.0914  3005
    ##  4      4     1    10          2 0.658 0.608 0.723    0.118   7328
    ##  5      2     0     5          1 0.708 0.655 0.678    0.200   4677
    ##  6      3     1     9          1 0.612 0.580 0.637    0.0827  7804
    ##  7      4     1    10          1 0.435 0.431 0.463    0.182   7570
    ##  8      2     1     3          1 0.494 0.482 0.439    0.320   6133
    ##  9      1     1     3          1 0.486 0.475 0.615    0.227   4990
    ## 10      1     0     2          1 0.144 0.150 0.437    0.222   1538
    ## # … with 62 more rows

``` r
testNew <- test[, c(3:5, 9:13, 16)]
testNew
```

    ## # A tibble: 32 x 9
    ##    season    yr  mnth weathersit  temp atemp   hum windspeed   cnt
    ##     <dbl> <dbl> <dbl>      <dbl> <dbl> <dbl> <dbl>     <dbl> <dbl>
    ##  1      1     0     1          1 0.204 0.233 0.518    0.0896  1606
    ##  2      1     0     1          2 0.262 0.255 0.538    0.196   1927
    ##  3      1     0     2          1 0.436 0.429 0.505    0.230   2475
    ##  4      1     0     3          1 0.198 0.200 0.318    0.226   1685
    ##  5      1     0     3          3 0.389 0.386 0        0.262    623
    ##  6      2     0     4          1 0.468 0.463 0.540    0.111   3267
    ##  7      2     0     6          2 0.628 0.595 0.688    0.206   3767
    ##  8      3     0     9          2 0.578 0.554 0.709    0.271   3659
    ##  9      3     0     9          2 0.628 0.555 0.902    0.128   4795
    ## 10      4     0    10          1 0.494 0.480 0.621    0.135   4765
    ## # … with 22 more rows
…
