…
``` r
#read in data
dayData <- read_csv("day.csv")
dayData
```

    ## # A tibble: 731 x 16
    ##    instant dteday     season    yr  mnth holiday weekday workingday weathersit  temp atemp   hum
    ##      <dbl> <date>      <dbl> <dbl> <dbl>   <dbl>   <dbl>      <dbl>      <dbl> <dbl> <dbl> <dbl>
    ##  1       1 2011-01-01      1     0     1       0       6          0          2 0.344 0.364 0.806
    ##  2       2 2011-01-02      1     0     1       0       0          0          2 0.363 0.354 0.696
    ##  3       3 2011-01-03      1     0     1       0       1          1          1 0.196 0.189 0.437
    ##  4       4 2011-01-04      1     0     1       0       2          1          1 0.2   0.212 0.590
    ##  5       5 2011-01-05      1     0     1       0       3          1          1 0.227 0.229 0.437
    ##  6       6 2011-01-06      1     0     1       0       4          1          1 0.204 0.233 0.518
    ##  7       7 2011-01-07      1     0     1       0       5          1          2 0.197 0.209 0.499
    ##  8       8 2011-01-08      1     0     1       0       6          0          2 0.165 0.162 0.536
    ##  9       9 2011-01-09      1     0     1       0       0          0          1 0.138 0.116 0.434
    ## 10      10 2011-01-10      1     0     1       0       1          1          1 0.151 0.151 0.483
    ## # … with 721 more rows, and 4 more variables: windspeed <dbl>, casual <dbl>, registered <dbl>,
    ## #   cnt <dbl>
…
``` r
#split data set into training and test sets
set.seed(1)
train <- sample(1:nrow(paramsData), size = nrow(paramsData)*0.7)
test <- dplyr::setdiff(1:nrow(paramsData), train)

train <- paramsData[train, ]
test <- paramsData[test, ]

#view the data sets
train
```

    ## # A tibble: 72 x 22
    ##    instant dteday     season    yr  mnth holiday weekday workingday weathersit  temp atemp   hum
    ##      <dbl> <date>      <dbl> <dbl> <dbl>   <dbl>   <dbl>      <dbl>      <dbl> <dbl> <dbl> <dbl>
    ##  1     193 2011-07-12      3     0     7       0       2          1          1 0.794 0.739 0.559
    ##  2     270 2011-09-27      4     0     9       0       2          1          2 0.637 0.575 0.885
    ##  3     410 2012-02-14      1     1     2       0       2          1          2 0.319 0.334 0.509
    ##  4     641 2012-10-02      4     1    10       0       2          1          3 0.591 0.542 0.872
    ##  5     144 2011-05-24      2     0     5       0       2          1          2 0.66  0.605 0.741
    ##  6     620 2012-09-11      3     1     9       0       2          1          1 0.578 0.554 0.52 
    ##  7     648 2012-10-09      4     1    10       0       2          1          2 0.447 0.438 0.762
    ##  8     452 2012-03-27      2     1     3       0       2          1          1 0.323 0.316 0.29 
    ##  9     424 2012-02-28      1     1     2       0       2          1          1 0.359 0.354 0.396
    ## 10      39 2011-02-08      1     0     2       0       2          1          1 0.221 0.198 0.538
    ## # … with 62 more rows, and 10 more variables: windspeed <dbl>, casual <dbl>, registered <dbl>,
    ## #   cnt <dbl>, status <chr>, SeasonType <chr>, yearType <chr>, workingdayType <chr>,
    ## #   weathersitType <chr>, mnth1 <chr>

``` r
test
```

    ## # A tibble: 32 x 22
    ##    instant dteday     season    yr  mnth holiday weekday workingday weathersit  temp atemp   hum
    ##      <dbl> <date>      <dbl> <dbl> <dbl>   <dbl>   <dbl>      <dbl>      <dbl> <dbl> <dbl> <dbl>
    ##  1       4 2011-01-04      1     0     1       0       2          1          1 0.2   0.212 0.590
    ##  2      18 2011-01-18      1     0     1       0       2          1          2 0.217 0.232 0.862
    ##  3      46 2011-02-15      1     0     2       0       2          1          1 0.266 0.254 0.314
    ##  4      60 2011-03-01      1     0     3       0       2          1          1 0.267 0.264 0.535
    ##  5      67 2011-03-08      1     0     3       0       2          1          1 0.292 0.302 0.421
    ##  6     102 2011-04-12      2     0     4       0       2          1          2 0.502 0.493 0.739
    ##  7     165 2011-06-14      2     0     6       0       2          1          1 0.604 0.592 0.507
    ##  8     256 2011-09-13      3     0     9       0       2          1          1 0.651 0.604 0.712
    ##  9     263 2011-09-20      3     0     9       0       2          1          2 0.562 0.532 0.881
    ## 10     277 2011-10-04      4     0    10       0       2          1          1 0.484 0.473 0.71 
    ## # … with 22 more rows, and 10 more variables: windspeed <dbl>, casual <dbl>, registered <dbl>,
    ## #   cnt <dbl>, status <chr>, SeasonType <chr>, yearType <chr>, workingdayType <chr>,
    ## #   weathersitType <chr>, mnth1 <chr>
…
### Modeling of the second group member

To select a model, we use the `stepAIC()` function. In the `stepAIC()`
function, we first specify the model with only main effects and the data
set to be used. Then we specify the most complex model and the most
simple model as upper and lower respectively in the scope.

``` r
#creat new data sets trainNew and testNew
trainNew <- train[, c(3:5, 9:13, 16)]
trainNew
```

    ## # A tibble: 72 x 9
    ##    season    yr  mnth weathersit  temp atemp   hum windspeed   cnt
    ##     <dbl> <dbl> <dbl>      <dbl> <dbl> <dbl> <dbl>     <dbl> <dbl>
    ##  1      3     0     7          1 0.794 0.739 0.559    0.200   4258
    ##  2      4     0     9          2 0.637 0.575 0.885    0.118   4120
    ##  3      1     1     2          2 0.319 0.334 0.509    0.141   3922
    ##  4      4     1    10          3 0.591 0.542 0.872    0.104   4639
    ##  5      2     0     5          2 0.66  0.605 0.741    0.207   4492
    ##  6      3     1     9          1 0.578 0.554 0.52     0.0921  7767
    ##  7      4     1    10          2 0.447 0.438 0.762    0.190   6392
    ##  8      2     1     3          1 0.323 0.316 0.29     0.187   5102
    ##  9      1     1     2          1 0.359 0.354 0.396    0.193   4363
    ## 10      1     0     2          1 0.221 0.198 0.538    0.362   1530
    ## # … with 62 more rows

``` r
testNew <- test[, c(3:5, 9:13, 16)]
testNew
```

    ## # A tibble: 32 x 9
    ##    season    yr  mnth weathersit  temp atemp   hum windspeed   cnt
    ##     <dbl> <dbl> <dbl>      <dbl> <dbl> <dbl> <dbl>     <dbl> <dbl>
    ##  1      1     0     1          1 0.2   0.212 0.590     0.160  1562
    ##  2      1     0     1          2 0.217 0.232 0.862     0.147   683
    ##  3      1     0     2          1 0.266 0.254 0.314     0.291  1815
    ##  4      1     0     3          1 0.267 0.264 0.535     0.216  1851
    ##  5      1     0     3          1 0.292 0.302 0.421     0.121  2133
    ##  6      2     0     4          2 0.502 0.493 0.739     0.275  2034
    ##  7      2     0     6          1 0.604 0.592 0.507     0.269  4891
    ##  8      3     0     9          1 0.651 0.604 0.712     0.142  4763
    ##  9      3     0     9          2 0.562 0.532 0.881     0.135  3641
    ## 10      4     0    10          1 0.484 0.473 0.71      0.206  4456
    ## # … with 22 more rows
…
