…
``` r
#read in data
dayData <- read_csv("day.csv")
dayData
```

    ## # A tibble: 731 x 16
    ##    instant dteday     season    yr  mnth holiday weekday workingday weathersit  temp atemp   hum
    ##      <dbl> <date>      <dbl> <dbl> <dbl>   <dbl>   <dbl>      <dbl>      <dbl> <dbl> <dbl> <dbl>
    ##  1       1 2011-01-01      1     0     1       0       6          0          2 0.344 0.364 0.806
    ##  2       2 2011-01-02      1     0     1       0       0          0          2 0.363 0.354 0.696
    ##  3       3 2011-01-03      1     0     1       0       1          1          1 0.196 0.189 0.437
    ##  4       4 2011-01-04      1     0     1       0       2          1          1 0.2   0.212 0.590
    ##  5       5 2011-01-05      1     0     1       0       3          1          1 0.227 0.229 0.437
    ##  6       6 2011-01-06      1     0     1       0       4          1          1 0.204 0.233 0.518
    ##  7       7 2011-01-07      1     0     1       0       5          1          2 0.197 0.209 0.499
    ##  8       8 2011-01-08      1     0     1       0       6          0          2 0.165 0.162 0.536
    ##  9       9 2011-01-09      1     0     1       0       0          0          1 0.138 0.116 0.434
    ## 10      10 2011-01-10      1     0     1       0       1          1          1 0.151 0.151 0.483
    ## # … with 721 more rows, and 4 more variables: windspeed <dbl>, casual <dbl>, registered <dbl>,
    ## #   cnt <dbl>
…
``` r
#split data set into training and test sets
set.seed(1)
train <- sample(1:nrow(paramsData), size = nrow(paramsData)*0.7)
test <- dplyr::setdiff(1:nrow(paramsData), train)

train <- paramsData[train, ]
test <- paramsData[test, ]

#view the data sets
train
```

    ## # A tibble: 72 x 22
    ##    instant dteday     season    yr  mnth holiday weekday workingday weathersit  temp atemp   hum
    ##      <dbl> <date>      <dbl> <dbl> <dbl>   <dbl>   <dbl>      <dbl>      <dbl> <dbl> <dbl> <dbl>
    ##  1     194 2011-07-13      3     0     7       0       3          1          1 0.747 0.689 0.632
    ##  2     271 2011-09-28      4     0     9       0       3          1          2 0.635 0.575 0.849
    ##  3     411 2012-02-15      1     1     2       0       3          1          1 0.348 0.352 0.531
    ##  4     642 2012-10-03      4     1    10       0       3          1          2 0.658 0.599 0.794
    ##  5     145 2011-05-25      2     0     5       0       3          1          1 0.661 0.616 0.696
    ##  6     621 2012-09-12      3     1     9       0       3          1          1 0.599 0.570 0.577
    ##  7     649 2012-10-10      4     1    10       0       3          1          1 0.514 0.503 0.631
    ##  8     453 2012-03-28      2     1     3       0       3          1          1 0.484 0.471 0.481
    ##  9     425 2012-02-29      1     1     2       0       3          1          2 0.344 0.348 0.805
    ## 10      40 2011-02-09      1     0     2       0       3          1          2 0.135 0.144 0.495
    ## # … with 62 more rows, and 10 more variables: windspeed <dbl>, casual <dbl>, registered <dbl>,
    ## #   cnt <dbl>, status <chr>, SeasonType <chr>, yearType <chr>, workingdayType <chr>,
    ## #   weathersitType <chr>, mnth1 <chr>

``` r
test
```

    ## # A tibble: 32 x 22
    ##    instant dteday     season    yr  mnth holiday weekday workingday weathersit  temp atemp   hum
    ##      <dbl> <date>      <dbl> <dbl> <dbl>   <dbl>   <dbl>      <dbl>      <dbl> <dbl> <dbl> <dbl>
    ##  1       5 2011-01-05      1     0     1       0       3          1          1 0.227 0.229 0.437
    ##  2      19 2011-01-19      1     0     1       0       3          1          2 0.292 0.298 0.742
    ##  3      47 2011-02-16      1     0     2       0       3          1          1 0.318 0.316 0.423
    ##  4      61 2011-03-02      1     0     3       0       3          1          1 0.335 0.320 0.450
    ##  5      68 2011-03-09      1     0     3       0       3          1          2 0.296 0.287 0.775
    ##  6     103 2011-04-13      2     0     4       0       3          1          2 0.412 0.417 0.819
    ##  7     166 2011-06-15      2     0     6       0       3          1          1 0.627 0.588 0.472
    ##  8     257 2011-09-14      3     0     9       0       3          1          1 0.673 0.627 0.697
    ##  9     264 2011-09-21      3     0     9       0       3          1          2 0.595 0.551 0.9  
    ## 10     278 2011-10-05      4     0    10       0       3          1          1 0.538 0.527 0.648
    ## # … with 22 more rows, and 10 more variables: windspeed <dbl>, casual <dbl>, registered <dbl>,
    ## #   cnt <dbl>, status <chr>, SeasonType <chr>, yearType <chr>, workingdayType <chr>,
    ## #   weathersitType <chr>, mnth1 <chr>
…
### Modeling of the second group member

To select a model, we use the `stepAIC()` function. In the `stepAIC()`
function, we first specify the model with only main effects and the data
set to be used. Then we specify the most complex model and the most
simple model as upper and lower respectively in the scope.

``` r
#creat new data sets trainNew and testNew
trainNew <- train[, c(3:5, 9:13, 16)]
trainNew
```

    ## # A tibble: 72 x 9
    ##    season    yr  mnth weathersit  temp atemp   hum windspeed   cnt
    ##     <dbl> <dbl> <dbl>      <dbl> <dbl> <dbl> <dbl>     <dbl> <dbl>
    ##  1      3     0     7          1 0.747 0.689 0.632    0.146   4342
    ##  2      4     0     9          2 0.635 0.575 0.849    0.149   3907
    ##  3      1     1     2          1 0.348 0.352 0.531    0.182   4169
    ##  4      4     1    10          2 0.658 0.599 0.794    0.0665  7572
    ##  5      2     0     5          1 0.661 0.616 0.696    0.154   4978
    ##  6      3     1     9          1 0.599 0.570 0.577    0.132   7870
    ##  7      4     1    10          1 0.514 0.503 0.631    0.188   7691
    ##  8      2     1     3          1 0.484 0.471 0.481    0.292   5698
    ##  9      1     1     2          2 0.344 0.348 0.805    0.179   1834
    ## 10      1     0     2          2 0.135 0.144 0.495    0.189   1605
    ## # … with 62 more rows

``` r
testNew <- test[, c(3:5, 9:13, 16)]
testNew
```

    ## # A tibble: 32 x 9
    ##    season    yr  mnth weathersit  temp atemp   hum windspeed   cnt
    ##     <dbl> <dbl> <dbl>      <dbl> <dbl> <dbl> <dbl>     <dbl> <dbl>
    ##  1      1     0     1          1 0.227 0.229 0.437    0.187   1600
    ##  2      1     0     1          2 0.292 0.298 0.742    0.208   1650
    ##  3      1     0     2          1 0.318 0.316 0.423    0.252   2115
    ##  4      1     0     3          1 0.335 0.320 0.450    0.308   2134
    ##  5      1     0     3          2 0.296 0.287 0.775    0.220   1891
    ##  6      2     0     4          2 0.412 0.417 0.819    0.251   2162
    ##  7      2     0     6          1 0.627 0.588 0.472    0.168   5180
    ##  8      3     0     9          1 0.673 0.627 0.697    0.167   4785
    ##  9      3     0     9          2 0.595 0.551 0.9      0.0964  4352
    ## 10      4     0    10          1 0.538 0.527 0.648    0.177   4826
    ## # … with 22 more rows
…
